<svg xmlns="http://www.w3.org/2000/svg" width="12" height="8" viewBox="0 0 12 8">
    <polygon fill="#FFF" points="10.115 6 8 8.115 11.87 12 8 15.885 9.057 16.942 10.115 18 16.115 12" transform="rotate(90 13.057 5)"/>
</svg>
