<?xml version="1.0" standalone="no"?>
<!DOCTYPE svg PUBLIC "-//W3C//DTD SVG 20010904//EN"
 "http://www.w3.org/TR/2001/REC-SVG-20010904/DTD/svg10.dtd">
<svg version="1.0" xmlns="http://www.w3.org/2000/svg"
 width="417.000000pt" height="417.000000pt" viewBox="0 0 417.000000 417.000000"
 preserveAspectRatio="xMidYMid meet">
<metadata>
Created by potrace 1.13, written by Peter Selinger 2001-2015
</metadata>
<g transform="translate(0.000000,417.000000) scale(0.100000,-0.100000)"
fill="#000000" stroke="none">
<path d="M1870 4119 c-314 -35 -655 -163 -900 -336 -133 -94 -350 -313 -429
-433 -256 -385 -327 -793 -224 -1285 143 -682 660 -1385 1408 -1912 173 -121
165 -126 81 48 -125 259 -181 455 -157 546 19 69 16 68 290 69 265 1 379 15
578 69 358 96 707 301 946 554 303 323 450 692 434 1091 -21 537 -316 1020
-807 1323 -343 211 -807 312 -1220 266z m-1131 -1386 c14 -12 47 -86 91 -203
60 -163 69 -182 78 -160 5 14 33 92 63 174 58 163 85 206 129 206 43 0 80 -35
80 -76 0 -42 -221 -578 -261 -634 -39 -54 -79 -72 -156 -72 -110 1 -171 59
-126 120 19 25 26 27 87 27 76 0 102 18 86 59 -4 11 -51 122 -104 244 -53 123
-96 237 -96 253 0 64 80 101 129 62z m594 5 c43 -23 46 -36 47 -201 0 -180 9
-216 59 -236 42 -18 95 -6 121 26 18 23 20 40 20 180 0 164 10 212 48 232 34
18 71 13 97 -14 l25 -24 0 -260 0 -260 -26 -20 c-15 -12 -39 -21 -54 -21 -34
0 -80 35 -80 61 0 22 -15 26 -23 5 -3 -8 -27 -27 -52 -42 -96 -56 -219 -26
-273 66 -27 44 -27 49 -30 252 l-4 208 30 30 c32 32 60 37 95 18z m612 -13
c14 -13 25 -31 25 -40 0 -21 4 -19 37 11 39 37 84 54 143 54 63 0 109 -18 142
-58 l26 -31 23 26 c38 41 96 63 169 63 83 0 135 -28 170 -90 24 -43 25 -53 28
-252 l4 -208 -30 -30 c-39 -38 -83 -40 -117 -5 -24 23 -25 28 -25 177 0 84 -5
170 -11 190 -22 83 -136 91 -174 13 -12 -26 -15 -69 -15 -194 0 -159 -1 -162
-25 -186 -36 -37 -86 -34 -119 6 -26 30 -26 33 -26 192 0 143 -2 166 -20 194
-34 56 -119 54 -157 -3 -15 -23 -19 -57 -23 -202 -5 -168 -6 -174 -29 -193
-32 -26 -74 -24 -108 5 l-28 24 0 257 0 257 28 24 c37 31 81 31 112 -1z m943
9 c13 -9 28 -28 33 -42 l10 -25 27 25 c45 43 86 58 154 58 151 -1 254 -109
265 -280 12 -174 -74 -301 -223 -329 -64 -12 -132 2 -183 40 l-41 29 0 -87 c0
-50 -6 -99 -13 -113 -28 -55 -94 -64 -137 -18 -19 21 -20 34 -20 363 0 358 0
359 45 383 28 16 57 14 83 -4z m663 -433 c21 -22 29 -39 29 -66 0 -51 -44 -95
-95 -95 -83 0 -127 105 -69 164 38 38 95 36 135 -3z"/>
<path d="M3010 2592 c-54 -27 -80 -74 -80 -146 0 -103 62 -171 147 -163 57 6
91 30 114 80 39 86 11 190 -62 227 -47 25 -74 25 -119 2z"/>
</g>
</svg>
