<svg xmlns="http://www.w3.org/2000/svg" width="200" height="50" viewBox="0 0 200 50">
  <path fill="#FFF" d="M198.013223,90.1808333 C198.013223,101.881667 188.604959,111.365833 177.005785,111.365833 C165.405785,111.365833 156,101.881667 156,90.1808333 C156,78.4825 165.406612,69 177.005785,69 C188.604959,69 198.013223,78.4825 198.013223,90.1808333 Z M180,78.3941667 L180,96.1058333 L181.798347,96.1058333 L181.798347,88.5983333 L181.847107,88.5983333 C182.67438,90.2183333 184.619835,91.54 187.005785,91.54 C191.723967,91.54 193.892562,88.3283333 193.892562,84.7708333 C193.892562,81.6558333 192.189256,78 187.005785,78 C183.503306,78 182.335537,79.8641667 181.847107,80.945 L181.798347,80.945 L181.798347,78.3941667 L180,78.3941667 Z M187.004959,90.0216667 C183.331405,90.0216667 181.702479,87.3966667 181.702479,84.7708333 C181.702479,81.4341667 184.01405,79.5225 187.004959,79.5225 C190.678512,79.5225 192.090083,82.2183333 192.090083,84.7708333 C192.090083,88.01 189.853719,90.0216667 187.004959,90.0216667 Z M164,78.3941667 L164,96.1058333 L165.801653,96.1058333 L165.801653,88.5983333 L165.850413,88.5983333 C166.679339,90.2183333 168.62314,91.54 171.006612,91.54 C175.727273,91.54 177.893388,88.3283333 177.893388,84.7708333 C177.893388,81.6558333 176.190083,78 171.006612,78 C167.504132,78 166.33719,79.8641667 165.850413,80.945 L165.801653,80.945 L165.801653,78.3941667 L164,78.3941667 Z M171.006612,90.0216667 C167.334711,90.0216667 165.704132,87.3966667 165.704132,84.7708333 C165.704132,81.4341667 168.015702,79.5225 171.006612,79.5225 C174.681818,79.5225 176.093388,82.2183333 176.093388,84.7708333 C176.093388,88.01 173.853719,90.0216667 171.006612,90.0216667 Z M172.863636,107.214167 C177.75124,107.214167 181.72314,103.081667 181.72314,98 L180.016529,98 C180.016529,102.130833 176.805785,105.495 172.863636,105.495 C168.914876,105.495 165.708264,102.130833 165.708264,98 L164,98 C164,103.081667 167.975207,107.214167 172.863636,107.214167 Z M203.933884,95.4175 L205.123967,95.4175 L205.123967,98.3383333 L205.176033,98.3383333 C205.796694,96.7483333 207.633058,95 211.047107,95 C215.702479,95 218.108264,98.3383333 218.108264,102.12 C218.108264,106.370833 215.081818,109.1875 211.047107,109.1875 C207.78843,109.1875 205.952066,107.3875 205.176033,105.9275 L205.123967,105.9275 L205.123967,114.0375 L203.933884,114.0375 L203.933884,95.4175 Z M204.968595,101.964167 C204.968595,106.658333 208.330579,108.145 211.020661,108.145 C214.072727,108.145 216.917355,106.215 216.917355,102.146667 C216.917355,98.3125 214.460331,96.0441667 211.176033,96.0441667 C206.210744,96.0433333 204.968595,99.59 204.968595,101.964167 Z M219.529752,99.5375 C219.969421,96.1733333 221.676033,95 225.685124,95 C229.538843,95 231.76281,95.9133333 231.76281,98.9125 L231.76281,106.395833 C231.76281,107.386667 231.76281,107.9875 232.642149,107.9875 C233.030579,107.9875 233.418182,107.909167 233.805785,107.778333 L233.805785,108.821667 C233.443802,108.9525 232.952066,109.030833 232.357851,109.030833 C230.728099,109.030833 230.728099,107.883333 230.728099,106.109167 L230.676033,106.109167 C229.201653,108.8475 226.097521,109.186667 224.365289,109.186667 C223.227273,109.186667 218.933884,109.186667 218.933884,105.1175 C218.933884,102.38 221.236364,101.440833 223.926446,101.284167 L228.556198,100.970833 C229.927273,100.866667 230.573554,100.71 230.573554,99.0675 C230.573554,97.2675 229.564463,96.0416667 225.659504,96.0416667 C222.167769,96.0416667 221.080992,97.1366667 220.719008,99.5358333 L219.529752,99.5358333 L219.529752,99.5375 Z M230.573554,101.311667 L230.521488,101.311667 C230.23719,101.624167 229.538843,101.936667 228.400826,102.015833 L223.926446,102.329167 C221.701653,102.485833 220.124793,103.110833 220.124793,105.119167 C220.124793,107.8325 222.840496,108.145 224.443802,108.145 C227.081818,108.145 230.573554,106.945833 230.573554,103.763333 L230.573554,101.311667 Z M235.934711,95.4166667 L237.123967,95.4166667 L237.123967,98.5725 L237.176033,98.5725 C238.055372,96.2258333 240.072727,95 242.659504,95 C243.021488,95 243.280165,95.0525 243.642149,95.1566667 L243.642149,96.3558333 C243.357851,96.2516667 243.021488,96.1991667 242.271074,96.1991667 C238.831405,96.1991667 237.123967,98.8325 237.123967,101.545 L237.123967,108.769167 L235.933884,108.769167 L235.933884,95.4166667 L235.934711,95.4166667 Z M247.933884,91 L249.12314,91 L249.12314,95.5116667 L253.054545,95.5116667 L253.054545,96.555 L249.12314,96.555 L249.12314,106.1775 C249.12314,107.821667 250.054545,108.081667 251.528926,108.081667 C252.071901,108.081667 252.641322,107.9775 253.184298,107.925 L253.184298,108.968333 C252.563636,109.098333 251.813223,109.125 251.166942,109.125 C248.399174,109.125 247.933884,108.081667 247.933884,105.526667 L247.933884,96.555 L244.933884,96.555 L244.933884,95.5116667 L247.933884,95.5116667 L247.933884,91 Z M254.933884,95.4166667 L256.123967,95.4166667 L256.123967,98.0766667 L256.176033,98.0766667 C257.003306,96.4858333 258.736364,95 261.76281,95 C267.840496,95 267.840496,98.9108333 267.840496,100.528333 L267.840496,108.77 L266.65124,108.77 L266.65124,100.581667 C266.65124,97.8683333 265.642149,96.0433333 261.73719,96.0433333 C257.832231,96.0433333 256.124793,98.495 256.124793,100.9725 L256.124793,108.77 L254.934711,108.77 L254.934711,95.4166667 L254.933884,95.4166667 Z M270.123967,102.355833 C270.201653,105.694167 272.45124,108.145 276.434711,108.145 C280.547107,108.145 281.607438,105.536667 282.072727,104.3375 L283.261983,104.3375 C282.149587,107.701667 279.822314,109.188333 276.304959,109.188333 C271.778512,109.188333 268.933884,106.424167 268.933884,101.99 C268.933884,99.1991667 270.692562,95 276.331405,95 C280.935537,95 283.573554,98.0775 283.62562,102.355 L270.123967,102.355 L270.123967,102.355833 Z M282.280165,101.3125 C281.78843,97.6608333 279.253719,96.0441667 276.202479,96.0441667 C272.78843,96.0441667 270.641322,98.1308333 270.124793,101.3125 L282.280165,101.3125 Z M284.933884,95.4166667 L286.123967,95.4166667 L286.123967,98.5725 L286.176033,98.5725 C287.055372,96.2258333 289.072727,95 291.659504,95 C292.021488,95 292.280165,95.0525 292.642149,95.1566667 L292.642149,96.3558333 C292.357851,96.2516667 292.021488,96.1991667 291.271074,96.1991667 C287.831405,96.1991667 286.123967,98.8325 286.123967,101.545 L286.123967,108.769167 L284.933884,108.769167 L284.933884,95.4166667 Z M304.028926,99.3291667 C303.847934,97.1125 302.45124,96.0433333 299.01157,96.0433333 C295.752893,96.0433333 294.691736,97.3208333 294.691736,98.7033333 C294.691736,100.164167 295.777686,100.763333 297.356198,100.9725 L301.571901,101.545833 C304.054545,101.884167 305.736364,102.7975 305.736364,105.196667 C305.736364,108.8225 301.650413,109.1875 299.4,109.1875 C295.752893,109.1875 293.115702,107.935833 292.933884,104.5975 L294.12314,104.5975 C294.278512,105.979167 294.56281,108.144167 299.709917,108.144167 C303.201653,108.144167 304.546281,107.100833 304.546281,105.196667 C304.546281,103.658333 303.433884,102.98 301.881818,102.771667 L297.226446,102.145833 C295.596694,101.936667 293.501653,101.155833 293.501653,98.7816667 C293.501653,97.2691667 294.561983,95 299.06281,95 C303.97686,95 305.063636,97.2425 305.219008,99.3291667 L304.028926,99.3291667 Z M307.933884,90 L309.123967,90 L309.123967,97.9291667 L309.176033,97.9291667 C310.003306,96.3383333 311.736364,94.8525 314.76281,94.8525 C320.840496,94.8525 320.840496,98.7633333 320.840496,100.380833 L320.840496,108.6225 L319.65124,108.6225 L319.65124,100.434167 C319.65124,97.7208333 318.642149,95.8958333 314.73719,95.8958333 C310.832231,95.8958333 309.124793,98.3475 309.124793,100.825 L309.124793,108.6225 L307.934711,108.6225 L307.934711,90 L307.933884,90 Z M323.933884,90 L325.12314,90 L325.12314,92.765 L323.933884,92.765 L323.933884,90 Z M323.933884,95.2683333 L325.12314,95.2683333 L325.12314,108.620833 L323.933884,108.620833 L323.933884,95.2683333 Z M327.933884,95.4175 L329.123967,95.4175 L329.123967,98.3383333 L329.176033,98.3383333 C329.796694,96.7483333 331.633058,95 335.047107,95 C339.702479,95 342.108264,98.3383333 342.108264,102.12 C342.108264,106.370833 339.081818,109.1875 335.047107,109.1875 C331.78843,109.1875 329.952066,107.3875 329.176033,105.9275 L329.123967,105.9275 L329.123967,114.0375 L327.933884,114.0375 L327.933884,95.4175 Z M328.968595,101.964167 C328.968595,106.658333 332.330579,108.145 335.020661,108.145 C338.072727,108.145 340.917355,106.215 340.917355,102.146667 C340.917355,98.3125 338.460331,96.0441667 335.175207,96.0441667 C330.209917,96.0433333 328.968595,99.59 328.968595,101.964167 Z M354.028926,99.3291667 C353.847934,97.1125 352.45124,96.0433333 349.01157,96.0433333 C345.752893,96.0433333 344.691736,97.3208333 344.691736,98.7033333 C344.691736,100.164167 345.777686,100.763333 347.356198,100.9725 L351.571901,101.545833 C354.054545,101.884167 355.736364,102.7975 355.736364,105.196667 C355.736364,108.8225 351.650413,109.1875 349.4,109.1875 C345.752893,109.1875 343.115702,107.935833 342.933884,104.5975 L344.12314,104.5975 C344.278512,105.979167 344.56281,108.144167 349.709917,108.144167 C353.201653,108.144167 354.546281,107.100833 354.546281,105.196667 C354.546281,103.658333 353.433884,102.98 351.881818,102.771667 L347.226446,102.145833 C345.596694,101.936667 343.501653,101.155833 343.501653,98.7816667 C343.501653,97.2691667 344.561983,95 349.06281,95 C353.97686,95 355.063636,97.2425 355.219008,99.3291667 L354.028926,99.3291667 Z M204,70.4175 L205.190083,70.4175 L205.190083,73.3383333 L205.242149,73.3383333 C205.86281,71.7475 207.699174,70 211.113223,70 C215.768595,70 218.17438,73.3383333 218.17438,77.12 C218.17438,81.3708333 215.147934,84.1866667 211.113223,84.1866667 C207.854545,84.1866667 206.018182,82.3875 205.242149,80.9266667 L205.190083,80.9266667 L205.190083,89.0375 L204,89.0375 L204,70.4175 Z M205.034711,76.9641667 C205.034711,81.6583333 208.396694,83.1441667 211.086777,83.1441667 C214.138843,83.1441667 216.983471,81.215 216.983471,77.1466667 C216.983471,73.3116667 214.526446,71.0433333 211.242149,71.0433333 C206.276033,71.0425 205.034711,74.59 205.034711,76.9641667 Z M227.475207,70 C232.208264,70 234.949587,73.3383333 234.949587,77.0941667 C234.949587,80.8491667 232.208264,84.1875 227.475207,84.1875 C222.741322,84.1875 220,80.8491667 220,77.0941667 C220,73.3383333 222.741322,70 227.475207,70 Z M227.475207,83.1441667 C231.665289,83.1441667 233.759504,80.145 233.759504,77.0941667 C233.759504,74.0425 231.664463,71.0425 227.475207,71.0425 C223.285124,71.0425 221.190083,74.0425 221.190083,77.0941667 C221.190083,80.145 223.284298,83.1441667 227.475207,83.1441667 Z M247.095041,74.3275 C246.91405,72.1108333 245.517355,71.0416667 242.077686,71.0416667 C238.819008,71.0416667 237.757851,72.32 237.757851,73.7025 C237.757851,75.1625 238.843802,75.7625 240.422314,75.9716667 L244.638017,76.545 C247.120661,76.8841667 248.802479,77.7975 248.802479,80.1966667 C248.802479,83.8225 244.716529,84.1866667 242.466116,84.1866667 C238.819008,84.1866667 236.181818,82.935 236,79.5966667 L237.189256,79.5966667 C237.344628,80.9783333 237.628926,83.1433333 242.776033,83.1433333 C246.267769,83.1433333 247.612397,82.1 247.612397,80.1966667 C247.612397,78.6575 246.5,77.98 244.947934,77.7708333 L240.292562,77.1458333 C238.66281,76.9366667 236.567769,76.155 236.567769,73.7816667 C236.567769,72.2691667 237.628099,70 242.128926,70 C247.042975,70 248.129752,72.2425 248.284298,74.3283333 L247.095041,74.3283333 L247.095041,74.3275 Z M251,65 L252.189256,65 L252.189256,67.7641667 L251,67.7641667 L251,65 Z M251,70.2675 L252.189256,70.2675 L252.189256,83.62 L251,83.62 L251,70.2675 Z M256,66 L257.189256,66 L257.189256,70.5116667 L261.120661,70.5116667 L261.120661,71.555 L257.189256,71.555 L257.189256,81.1783333 C257.189256,82.8216667 258.120661,83.0816667 259.595041,83.0816667 C260.138017,83.0816667 260.707438,82.9775 261.250413,82.925 L261.250413,83.9683333 C260.629752,84.0983333 259.879339,84.125 259.233058,84.125 C256.465289,84.125 256,83.0816667 256,80.5266667 L256,71.555 L253,71.555 L253,70.5116667 L256,70.5116667 L256,66 Z M263,65 L264.189256,65 L264.189256,67.7641667 L263,67.7641667 L263,65 Z M263,70.2675 L264.189256,70.2675 L264.189256,83.62 L263,83.62 L263,70.2675 Z M266,70 L267.344628,70 L273.138017,82.1533333 L278.931405,70 L280.276033,70 L273.732231,83.3525 L272.542975,83.3525 L266,70 Z M282.190083,77.355 C282.267769,80.6933333 284.517355,83.1441667 288.500826,83.1441667 C292.613223,83.1441667 293.673554,80.5366667 294.138843,79.3375 L295.328099,79.3375 C294.215702,82.7016667 291.88843,84.1875 288.371074,84.1875 C283.844628,84.1875 281,81.4241667 281,76.99 C281,74.1983333 282.758678,70 288.397521,70 C293.001653,70 295.639669,73.0766667 295.691736,77.3541667 L282.190083,77.3541667 L282.190083,77.355 Z M294.346281,76.3116667 C293.854545,72.6608333 291.319835,71.0433333 288.268595,71.0433333 C284.854545,71.0433333 282.707438,73.13 282.190909,76.3116667 L294.346281,76.3116667 Z" transform="translate(-156 -65)"/>
</svg>
