<svg xmlns="http://www.w3.org/2000/svg" width="20" height="20" viewBox="0 0 20 20">
  <path fill="#712D90" fill-rule="evenodd" d="M10,20 C4.4771525,20 0,15.5228475 0,10 C0,4.4771525 4.4771525,0 10,0 C15.5228475,0 20,4.4771525 20,10 C20,15.5228475 15.5228475,20 10,20 Z M13.8972168,8.0513916 C13.8972168,5.89726591 12.1541257,4.1541748 10,4.1541748 C7.84587431,4.1541748 6.1027832,5.89726591 6.1027832,8.0513916 C6.1027832,8.51570845 6.15606546,8.99524879 6.353971,9.41389513 L9.13226032,15.3053908 C9.28449535,15.6403079 9.63463593,15.8458252 10,15.8458252 C10.3653641,15.8458252 10.7155046,15.6403079 10.8753514,15.3053908 L13.646029,9.41389513 C13.8439345,8.99524879 13.8972168,8.51570845 13.8972168,8.0513916 Z M11.9486084,8.0513916 C11.9486084,9.12464857 11.073257,10 10,10 C8.92674303,10 8.0513916,9.12464857 8.0513916,8.0513916 C8.0513916,6.97813463 8.92674303,6.1027832 10,6.1027832 C11.073257,6.1027832 11.9486084,6.97813463 11.9486084,8.0513916 Z"/>
</svg>
