<svg xmlns="http://www.w3.org/2000/svg" width="53" height="53" viewBox="0 0 53 53">
  <path fill="#F7941E" fill-rule="evenodd" d="M52.1324852,22.4832925 L52.1325941,39.2679367 C52.1266046,42.4434739 49.5464298,45.0183624 46.3559778,45.0374062 L44.3140973,45.0374062 L44.3140973,51.1730192 C44.3140973,51.7209888 43.9822726,52.2160842 43.4739315,52.4255443 C42.9634614,52.6371168 42.3785252,52.5207525 41.9892938,52.1314541 L41.9892938,52.1335703 L34.8448898,45.0371029 L28.1812806,45.0371029 C26.639198,45.0349905 25.1609854,44.4235416 24.0719824,43.3381642 C22.9829794,42.2506744 22.3725334,40.7801964 22.3767859,39.2462931 L22.3767859,35.7362437 L20.8070971,35.7362437 L12.3139629,44.1694617 C11.9246988,44.5566477 11.3376663,44.6730121 10.8293252,44.4635519 C10.3188387,44.2541027 9.98703583,43.7589964 9.98915939,43.2110268 L9.98915939,35.7359566 L6.72215049,35.7359566 C3.08907379,35.7337901 0.145356109,32.8100578 0.132594083,29.1984523 L0.132594083,7.0846804 C0.134772634,3.46440874 3.08292092,0.531956204 6.72215049,0.529843837 L34.2129414,0.529843837 C37.8502657,0.532010367 40.7982458,3.4646254 40.8024983,7.0846804 L40.8024983,16.70949 L46.3280994,16.70949 C49.5333618,16.7116565 52.1303562,19.2948644 52.1324852,22.4832925 Z M20.2410333,33.0283357 L34.2129033,33.0453971 C36.3462601,33.0411724 38.0754824,31.3210559 38.079735,29.1989397 L38.079735,7.08516787 C38.0754879,4.96093935 36.3462601,3.24082285 34.2129033,3.23871048 L6.72211237,3.23871048 C4.58663201,3.24082285 2.85740746,4.96093935 2.85528064,7.08516787 L2.85528064,29.1989397 C2.8574042,31.3210559 4.58663201,33.041167 6.72211237,33.0453971 L11.3822828,33.0453971 C11.7438318,33.0453971 12.0884141,33.1871532 12.3457781,33.4410434 C12.6010132,33.6949066 12.7435201,34.0397857 12.7435201,34.3994621 L12.7435201,39.923572 L19.2775379,33.423982 C19.5327458,33.1700918 19.8794517,33.0283357 20.2410333,33.0283357 Z M49.4099778,39.2679422 L49.4099778,22.4836933 C49.4077998,20.7910917 48.0295576,19.4200574 46.3279905,19.417945 L40.8023894,19.417945 L40.8023894,29.1819541 C40.7980334,32.8022258 37.849939,35.7346729 34.2128325,35.7367907 L25.0989666,35.7367907 L25.0989666,39.2637391 C25.0989666,40.9563407 26.4772632,42.3294874 28.1809539,42.3294874 L35.3890646,42.3294874 C35.74849,42.3294874 36.0930778,42.4712434 36.3483128,42.7230159 L41.5636025,47.9129385 L41.5636025,43.6877717 C41.5636025,42.9409147 42.1740431,42.3336905 42.9248562,42.3336905 L46.3279905,42.3336905 C48.0295576,42.3315239 49.4078488,40.9605437 49.4099778,39.2679422 Z M31.1800681,8.87044277 L31.180471,8.87044277 C31.927037,8.8810046 32.5247363,9.48400407 32.5247363,10.224524 L32.5247363,25.2060791 C32.5247363,25.5657231 32.3822021,25.9106076 32.1269943,26.1644978 C31.8717865,26.418388 31.5250806,26.5601441 31.1634989,26.5601441 L26.1332309,26.5601441 C24.3593539,26.5685936 22.6705826,27.3239001 21.4879798,28.6399046 C21.230594,28.9276469 20.8605181,29.0926769 20.4734102,29.0926769 C20.0862697,29.0926769 19.7162047,28.9276469 19.456717,28.6399046 C18.2698672,27.317563 16.5725471,26.5622619 14.7922995,26.5601441 L9.75990793,26.5601441 C9.39835894,26.5601441 9.05377118,26.418361 8.79853611,26.1644978 C8.54330104,25.9106346 8.39867056,25.5657556 8.39867056,25.2060791 L8.39867056,10.224524 C8.39867056,9.47766697 9.00911117,8.87044277 9.75992426,8.87044277 L14.7859452,8.87044277 C16.8573922,8.87044277 18.8652414,9.58350196 20.4710852,10.8867781 C22.0682169,9.58767253 24.069641,8.8767907 26.1328116,8.87044277 L31.1800681,8.87044277 Z M14.785673,23.8519978 L14.785673,23.8521603 C16.2979169,23.8542727 17.7846782,24.237261 19.109777,24.9629403 L19.109777,13.3135084 C17.9484643,12.2048408 16.400011,11.5828354 14.7920436,11.5786053 L11.1209057,11.5786053 L11.1209057,23.8519978 L14.785673,23.8519978 Z M29.8150029,23.8519978 L29.8022616,11.5785511 L26.1332472,11.5785511 C24.5231563,11.5827759 22.9768266,12.2047866 21.8155138,13.3134542 L21.8155138,24.9352628 C23.1406126,24.22014 24.6252504,23.8477677 26.1332472,23.8519978 L29.8150029,23.8519978 Z"/>
</svg>
