{
	"buttons": ["format","bold","italic","link","horizontalrule"],
	"plugins": ["source", "alignment"],
	"imageResizable": true,
	"imagePosition": true,
	"formatting": ["p", "h1", "h2", "h3", "h4"],
	"dragImageUpload": false,
	"formattingAdd": {
		"small-text": {
			"title": "Small text",
			"args": ["p", {"class": "small-text"}, "toggle"]
		}
	}
}
